biostatistics project
…
Loading required package: survival
Package epiR 2.0.73 is loaded
Type help(epi.about) for summary information
Type browseVignettes(package = 'epiR') to learn how to use epiR for applied epidemiological analyses

Contraceptives_OvarianCancer <- read_sav("~/Desktop/biostatistics project/Contraceptives_OvarianCancer.sav")

# Contraceptives_OvarianCancer|> glimpse()

#separating StudyArm, Tuballigation, and AgeTLgrouped
co_cancer<- Contraceptives_OvarianCancer
co_cancer <- co_cancer |> select(StudyNo, StudyArm, TubalLigation, AgeTLGrouped, YearsTL, AgeTLGrouped, Age)
co_cancer

# A tibble: 898 × 6
   StudyNo StudyArm     TubalLigation AgeTLGrouped     YearsTL     Age
   <chr>   <dbl+lbl>    <dbl+lbl>     <dbl+lbl>        <dbl+lbl> <dbl>
 1 1005    0 [Controls] 2 [No]        888 [Not Had TL] NA         52.9
 2 1009    0 [Controls] 1 [Yes]         2 [31-35]      25         60.1
 3 1011    0 [Controls] 2 [No]        888 [Not Had TL] NA         63.2
 4 1016    0 [Controls] 2 [No]        888 [Not Had TL] NA         37.0
 5 1020    0 [Controls] 2 [No]        888 [Not Had TL] NA         46.1
 6 1021    0 [Controls] 1 [Yes]         1 [22-30]      21         45.7
 7 1024    0 [Controls] 2 [No]        888 [Not Had TL] NA         53.0
 8 1025    0 [Controls] 2 [No]        888 [Not Had TL] NA         51.5
 9 1026    0 [Controls] 2 [No]        888 [Not Had TL] NA         54.2
10 1028    0 [Controls] 2 [No]        888 [Not Had TL] NA         58.7
# ℹ 888 more rows
…
#CASE + NO TL
n1n2<-co_cancer|> filter(StudyArm == 1, TubalLigation == 2)
n1n2

# A tibble: 121 × 6
   StudyNo StudyArm  TubalLigation AgeTLGrouped     YearsTL     Age
   <chr>   <dbl+lbl> <dbl+lbl>     <dbl+lbl>        <dbl+lbl> <dbl>
 1 2001    1 [Case]  2 [No]        888 [Not Had TL] NA         58.4
 2 2004    1 [Case]  2 [No]        888 [Not Had TL] NA         58.7
 3 2005    1 [Case]  2 [No]        888 [Not Had TL] NA         51.6
 4 2006    1 [Case]  2 [No]        888 [Not Had TL] NA         53.4
 5 2011    1 [Case]  2 [No]        888 [Not Had TL] NA         66.1
 6 2012    1 [Case]  2 [No]        888 [Not Had TL] NA         58.8
 7 2013    1 [Case]  2 [No]        888 [Not Had TL] NA         44.5
 8 2014    1 [Case]  2 [No]        888 [Not Had TL] NA         53.7
 9 2015    1 [Case]  2 [No]        888 [Not Had TL] NA         58.5
10 2018    1 [Case]  2 [No]        888 [Not Had TL] NA         40.6
# ℹ 111 more rows

#CONTROL + TL
n2n1<- co_cancer |> filter(StudyArm == 0, TubalLigation == 1)
n2n1

# A tibble: 146 × 6
   StudyNo StudyArm     TubalLigation AgeTLGrouped YearsTL     Age
   <chr>   <dbl+lbl>    <dbl+lbl>     <dbl+lbl>    <dbl+lbl> <dbl>
 1 1009    0 [Controls] 1 [Yes]       2 [31-35]    25         60.1
 2 1021    0 [Controls] 1 [Yes]       1 [22-30]    21         45.7
 3 1035    0 [Controls] 1 [Yes]       3 [36-40]    25         64.9
 4 1036    0 [Controls] 1 [Yes]       2 [31-35]    32         63.2
 5 1053    0 [Controls] 1 [Yes]       2 [31-35]    14         49.1
 6 1054    0 [Controls] 1 [Yes]       3 [36-40]    17         53.3
 7 1061    0 [Controls] 1 [Yes]       1 [22-30]    30         56  
 8 1070    0 [Controls] 1 [Yes]       1 [22-30]    39         66.4
 9 1089    0 [Controls] 1 [Yes]       3 [36-40]    20         56.2
10 1098    0 [Controls] 1 [Yes]       2 [31-35]    31         63.3
# ℹ 136 more rows

#CONTROL + NO TL
n2n2<-co_cancer|> filter(StudyArm == 0, TubalLigation == 2)
n2n2

# A tibble: 600 × 6
   StudyNo StudyArm     TubalLigation AgeTLGrouped     YearsTL     Age
   <chr>   <dbl+lbl>    <dbl+lbl>     <dbl+lbl>        <dbl+lbl> <dbl>
 1 1005    0 [Controls] 2 [No]        888 [Not Had TL] NA         52.9
 2 1011    0 [Controls] 2 [No]        888 [Not Had TL] NA         63.2
 3 1016    0 [Controls] 2 [No]        888 [Not Had TL] NA         37.0
 4 1020    0 [Controls] 2 [No]        888 [Not Had TL] NA         46.1
 5 1024    0 [Controls] 2 [No]        888 [Not Had TL] NA         53.0
 6 1025    0 [Controls] 2 [No]        888 [Not Had TL] NA         51.5
 7 1026    0 [Controls] 2 [No]        888 [Not Had TL] NA         54.2
 8 1028    0 [Controls] 2 [No]        888 [Not Had TL] NA         58.7
 9 1031    0 [Controls] 2 [No]        888 [Not Had TL] NA         58.9
10 1038    0 [Controls] 2 [No]        888 [Not Had TL] NA         60.4
# ℹ 590 more rows
…
n1n1a4 <- n1n1 |> filter(AgeTLGrouped == 4)
n1n1a4

# A tibble: 2 × 6
  StudyNo StudyArm  TubalLigation AgeTLGrouped YearsTL     Age
  <chr>   <dbl+lbl> <dbl+lbl>     <dbl+lbl>    <dbl+lbl> <dbl>
1 2034    1 [Case]  1 [Yes]       4 [41-56]    24         66.7
2 2073    1 [Case]  1 [Yes]       4 [41-56]     1         41.7

notl_case <-co_cancer|> filter(StudyArm == 1, TubalLigation == 2)
notl_case

# A tibble: 121 × 6
   StudyNo StudyArm  TubalLigation AgeTLGrouped     YearsTL     Age
   <chr>   <dbl+lbl> <dbl+lbl>     <dbl+lbl>        <dbl+lbl> <dbl>
 1 2001    1 [Case]  2 [No]        888 [Not Had TL] NA         58.4
 2 2004    1 [Case]  2 [No]        888 [Not Had TL] NA         58.7
 3 2005    1 [Case]  2 [No]        888 [Not Had TL] NA         51.6
 4 2006    1 [Case]  2 [No]        888 [Not Had TL] NA         53.4
 5 2011    1 [Case]  2 [No]        888 [Not Had TL] NA         66.1
 6 2012    1 [Case]  2 [No]        888 [Not Had TL] NA         58.8
 7 2013    1 [Case]  2 [No]        888 [Not Had TL] NA         44.5
 8 2014    1 [Case]  2 [No]        888 [Not Had TL] NA         53.7
 9 2015    1 [Case]  2 [No]        888 [Not Had TL] NA         58.5
10 2018    1 [Case]  2 [No]        888 [Not Had TL] NA         40.6
# ℹ 111 more rows
…
# Print the table
tbl_age_case

      Age at TL
22-30        10
31-35         8
36-40         7
+40           2
no TL       121

# control table
n1n2a1 <- n2n1 |> filter(AgeTLGrouped == 1)
n1n2a1

# A tibble: 57 × 6
   StudyNo StudyArm     TubalLigation AgeTLGrouped YearsTL     Age
   <chr>   <dbl+lbl>    <dbl+lbl>     <dbl+lbl>    <dbl+lbl> <dbl>
 1 1021    0 [Controls] 1 [Yes]       1 [22-30]    21         45.7
 2 1061    0 [Controls] 1 [Yes]       1 [22-30]    30         56  
 3 1070    0 [Controls] 1 [Yes]       1 [22-30]    39         66.4
 4 1105    0 [Controls] 1 [Yes]       1 [22-30]    39         65.8
 5 1155    0 [Controls] 1 [Yes]       1 [22-30]    33         61.0
 6 1164    0 [Controls] 1 [Yes]       1 [22-30]    41         69.2
 7 1186    0 [Controls] 1 [Yes]       1 [22-30]    32         62.5
 8 1188    0 [Controls] 1 [Yes]       1 [22-30]    38         62.5
 9 1190    0 [Controls] 1 [Yes]       1 [22-30]    40         66.7
10 1200B   0 [Controls] 1 [Yes]       1 [22-30]    24         49.4
# ℹ 47 more rows

n1n2a2 <- n2n1 |> filter(AgeTLGrouped == 2)
n1n2a2

# A tibble: 46 × 6
   StudyNo StudyArm     TubalLigation AgeTLGrouped YearsTL     Age
   <chr>   <dbl+lbl>    <dbl+lbl>     <dbl+lbl>    <dbl+lbl> <dbl>
 1 1009    0 [Controls] 1 [Yes]       2 [31-35]    25         60.1
 2 1036    0 [Controls] 1 [Yes]       2 [31-35]    32         63.2
 3 1053    0 [Controls] 1 [Yes]       2 [31-35]    14         49.1
 4 1098    0 [Controls] 1 [Yes]       2 [31-35]    31         63.3
 5 1127    0 [Controls] 1 [Yes]       2 [31-35]    31         65.2
 6 1147B   0 [Controls] 1 [Yes]       2 [31-35]    24         56.9
 7 1276    0 [Controls] 1 [Yes]       2 [31-35]    28         61.3
 8 1386    0 [Controls] 1 [Yes]       2 [31-35]    20         54.2
 9 1390B   0 [Controls] 1 [Yes]       2 [31-35]    30         60.7
10 1397    0 [Controls] 1 [Yes]       2 [31-35]    31         62.5
# ℹ 36 more rows

n1n2a3 <- n2n1 |> filter(AgeTLGrouped == 3)
n1n2a3

# A tibble: 26 × 6
   StudyNo StudyArm     TubalLigation AgeTLGrouped YearsTL     Age
   <chr>   <dbl+lbl>    <dbl+lbl>     <dbl+lbl>    <dbl+lbl> <dbl>
 1 1035    0 [Controls] 1 [Yes]       3 [36-40]    25         64.9
 2 1054    0 [Controls] 1 [Yes]       3 [36-40]    17         53.3
 3 1089    0 [Controls] 1 [Yes]       3 [36-40]    20         56.2
 4 1171B   0 [Controls] 1 [Yes]       3 [36-40]     7         43.1
 5 1202B   0 [Controls] 1 [Yes]       3 [36-40]     9         49.2
 6 1210    0 [Controls] 1 [Yes]       3 [36-40]    17         57.0
 7 1244    0 [Controls] 1 [Yes]       3 [36-40]    25         60.6
 8 1262    0 [Controls] 1 [Yes]       3 [36-40]    10         47.5
 9 1342    0 [Controls] 1 [Yes]       3 [36-40]    29         68.5
10 1384    0 [Controls] 1 [Yes]       3 [36-40]    16         51.8
# ℹ 16 more rows
…
notl_control <-co_cancer|> filter(StudyArm == 0, TubalLigation == 2)
notl_control

# A tibble: 600 × 6
   StudyNo StudyArm     TubalLigation AgeTLGrouped     YearsTL     Age
   <chr>   <dbl+lbl>    <dbl+lbl>     <dbl+lbl>        <dbl+lbl> <dbl>
 1 1005    0 [Controls] 2 [No]        888 [Not Had TL] NA         52.9
 2 1011    0 [Controls] 2 [No]        888 [Not Had TL] NA         63.2
 3 1016    0 [Controls] 2 [No]        888 [Not Had TL] NA         37.0
 4 1020    0 [Controls] 2 [No]        888 [Not Had TL] NA         46.1
 5 1024    0 [Controls] 2 [No]        888 [Not Had TL] NA         53.0
 6 1025    0 [Controls] 2 [No]        888 [Not Had TL] NA         51.5
 7 1026    0 [Controls] 2 [No]        888 [Not Had TL] NA         54.2
 8 1028    0 [Controls] 2 [No]        888 [Not Had TL] NA         58.7
 9 1031    0 [Controls] 2 [No]        888 [Not Had TL] NA         58.9
10 1038    0 [Controls] 2 [No]        888 [Not Had TL] NA         60.4
# ℹ 590 more rows
…
  1   2   3   4 888 
 12  24  63  74 721 

yrs_sincetl <- yrs |>
  mutate(YearsTLGrouped_new = case_when(
    YearsTLGrouped == 888 ~ 1,
    YearsTLGrouped == 1 ~ 2,
    YearsTLGrouped == 2 ~ 3,
    YearsTLGrouped == 3 ~ 4,
    YearsTLGrouped == 4 ~ 5,
    
  ))
yrs_sincetl

# A tibble: 898 × 6
   StudyArm     TubalLigation YearsTLGrouped   Age AgeGrouped YearsTLGrouped_new
   <dbl+lbl>    <dbl+lbl>     <dbl+lbl>      <dbl> <dbl+lbl>               <dbl>
 1 0 [Controls] 2 [No]        888 [Not Had …  52.9 4 [50-54]                   1
 2 0 [Controls] 1 [Yes]         3 [21-30]     60.1 6 [60-64]                   4
 3 0 [Controls] 2 [No]        888 [Not Had …  63.2 6 [60-64]                   1
 4 0 [Controls] 2 [No]        888 [Not Had …  37.0 1 [35-39]                   1
 5 0 [Controls] 2 [No]        888 [Not Had …  46.1 3 [45-49]                   1
 6 0 [Controls] 1 [Yes]         3 [21-30]     45.7 3 [45-49]                   4
 7 0 [Controls] 2 [No]        888 [Not Had …  53.0 4 [50-54]                   1
 8 0 [Controls] 2 [No]        888 [Not Had …  51.5 4 [50-54]                   1
 9 0 [Controls] 2 [No]        888 [Not Had …  54.2 4 [50-54]                   1
10 0 [Controls] 2 [No]        888 [Not Had …  58.7 5 [55-59]                   1
# ℹ 888 more rows
…
yrs3_c <- yrs |> filter(StudyArm == 0, TubalLigation == 1, YearsTLGrouped == 3)
yrs3_c

# A tibble: 54 × 5
   StudyArm     TubalLigation YearsTLGrouped   Age AgeGrouped
   <dbl+lbl>    <dbl+lbl>     <dbl+lbl>      <dbl> <dbl+lbl> 
 1 0 [Controls] 1 [Yes]       3 [21-30]       60.1 6 [60-64] 
 2 0 [Controls] 1 [Yes]       3 [21-30]       45.7 3 [45-49] 
 3 0 [Controls] 1 [Yes]       3 [21-30]       64.9 6 [60-64] 
 4 0 [Controls] 1 [Yes]       3 [21-30]       56   5 [55-59] 
 5 0 [Controls] 1 [Yes]       3 [21-30]       69.4 7 [65-69] 
 6 0 [Controls] 1 [Yes]       3 [21-30]       49.4 3 [45-49] 
 7 0 [Controls] 1 [Yes]       3 [21-30]       60.6 6 [60-64] 
 8 0 [Controls] 1 [Yes]       3 [21-30]       65.8 7 [65-69] 
 9 0 [Controls] 1 [Yes]       3 [21-30]       56.9 5 [55-59] 
10 0 [Controls] 1 [Yes]       3 [21-30]       61.3 6 [60-64] 
# ℹ 44 more rows

yrs4_c <- yrs |> filter(StudyArm == 0, TubalLigation == 1, YearsTLGrouped == 4)
yrs4_c

# A tibble: 64 × 5
   StudyArm     TubalLigation YearsTLGrouped   Age AgeGrouped
   <dbl+lbl>    <dbl+lbl>     <dbl+lbl>      <dbl> <dbl+lbl> 
 1 0 [Controls] 1 [Yes]       4 [31-45]       63.2 6 [60-64] 
 2 0 [Controls] 1 [Yes]       4 [31-45]       66.4 7 [65-69] 
 3 0 [Controls] 1 [Yes]       4 [31-45]       63.3 6 [60-64] 
 4 0 [Controls] 1 [Yes]       4 [31-45]       65.8 7 [65-69] 
 5 0 [Controls] 1 [Yes]       4 [31-45]       65.2 7 [65-69] 
 6 0 [Controls] 1 [Yes]       4 [31-45]       61.0 6 [60-64] 
 7 0 [Controls] 1 [Yes]       4 [31-45]       69.2 7 [65-69] 
 8 0 [Controls] 1 [Yes]       4 [31-45]       62.5 6 [60-64] 
 9 0 [Controls] 1 [Yes]       4 [31-45]       62.5 6 [60-64] 
10 0 [Controls] 1 [Yes]       4 [31-45]       66.7 7 [65-69] 
# ℹ 54 more rows
…
Regression for Age at tubal ligation

For the middle portion of the table, you would need to group age at TL (column 57) as 

Group 1: 22-30, Group 2: 31-35, Group 3: 36-40, Group 4: 41-56, Group 0: Never had TL (reference).  

This categorical predictor, along with the previously created grouped-age predictor, would be needed in a logistic regression model to get the OR for each age at TL group relative to the refence (Never had TL).  The authors then either used column 57 directly, or treated the grouped age at TL variable, as a quantitative predictor for the trend test.  I am not sure whether the authors considered grouped-age (computed from column 3) as a quantitative or categorical predictor in the logistic regression analyses.

fit_co_cancer <- Contraceptives_OvarianCancer |> select(StudyArm, TubalLigation, AgeTLGrouped, AgeTL, Age, AgeGrouped)
fit_co_cancer

# A tibble: 898 × 6
   StudyArm     TubalLigation AgeTLGrouped     AgeTL       Age AgeGrouped
   <dbl+lbl>    <dbl+lbl>     <dbl+lbl>        <dbl+lbl> <dbl> <dbl+lbl> 
 1 0 [Controls] 2 [No]        888 [Not Had TL] NA         52.9 4 [50-54] 
 2 0 [Controls] 1 [Yes]         2 [31-35]      35         60.1 6 [60-64] 
 3 0 [Controls] 2 [No]        888 [Not Had TL] NA         63.2 6 [60-64] 
 4 0 [Controls] 2 [No]        888 [Not Had TL] NA         37.0 1 [35-39] 
 5 0 [Controls] 2 [No]        888 [Not Had TL] NA         46.1 3 [45-49] 
 6 0 [Controls] 1 [Yes]         1 [22-30]      25         45.7 3 [45-49] 
 7 0 [Controls] 2 [No]        888 [Not Had TL] NA         53.0 4 [50-54] 
 8 0 [Controls] 2 [No]        888 [Not Had TL] NA         51.5 4 [50-54] 
 9 0 [Controls] 2 [No]        888 [Not Had TL] NA         54.2 4 [50-54] 
10 0 [Controls] 2 [No]        888 [Not Had TL] NA         58.7 5 [55-59] 
# ℹ 888 more rows

library(dplyr)

fit2_co_cancer <- fit_co_cancer |>
  mutate(AgeTLGrouped_new = case_when(
    AgeTLGrouped == 888 ~ 1,
    AgeTLGrouped == 1 ~ 2,
    AgeTLGrouped == 2 ~ 3,
    AgeTLGrouped == 3 ~ 4,
    AgeTLGrouped == 4 ~ 5,
    
  ))
unique(fit2_co_cancer)

# A tibble: 833 × 7
   StudyArm   TubalLigation AgeTLGrouped AgeTL   Age AgeGrouped AgeTLGrouped_new
   <dbl+lbl>  <dbl+lbl>     <dbl+lbl>    <dbl> <dbl> <dbl+lbl>             <dbl>
 1 0 [Contro… 2 [No]        888 [Not Ha… NA     52.9 4 [50-54]                 1
 2 0 [Contro… 1 [Yes]         2 [31-35]  35     60.1 6 [60-64]                 3
 3 0 [Contro… 2 [No]        888 [Not Ha… NA     63.2 6 [60-64]                 1
 4 0 [Contro… 2 [No]        888 [Not Ha… NA     37.0 1 [35-39]                 1
 5 0 [Contro… 2 [No]        888 [Not Ha… NA     46.1 3 [45-49]                 1
 6 0 [Contro… 1 [Yes]         1 [22-30]  25     45.7 3 [45-49]                 2
 7 0 [Contro… 2 [No]        888 [Not Ha… NA     53.0 4 [50-54]                 1
 8 0 [Contro… 2 [No]        888 [Not Ha… NA     51.5 4 [50-54]                 1
 9 0 [Contro… 2 [No]        888 [Not Ha… NA     54.2 4 [50-54]                 1
10 0 [Contro… 2 [No]        888 [Not Ha… NA     58.7 5 [55-59]                 1
# ℹ 823 more rows
…
